{
    "status": "OK",
    "data-availability": "available",
    "data": [
      {
        "page": 1,
        "pages": 4,
        "per_page": 10,
        "count": 10,
        "total": 35
      },
      [
        {
          "sub_id": 40,
          "title": "Gender",
          "subcat_id": 1,
          "subcat": "Sosial dan Kependudukan",
          "ntabel": null
        },
        {
          "sub_id": 153,
          "title": "Geografi",
          "subcat_id": 1,
          "subcat": "Sosial dan Kependudukan",
          "ntabel": null
        },
        {
          "sub_id": 151,
          "title": "Iklim",
          "subcat_id": 1,
          "subcat": "Sosial dan Kependudukan",
          "ntabel": null
        },
        {
          "sub_id": 26,
          "title": "Indeks Pembangunan Manusia",
          "subcat_id": 1,
          "subcat": "Sosial dan Kependudukan",
          "ntabel": null
        },
        {
          "sub_id": 23,
          "title": "Kemiskinan dan Ketimpangan",
          "subcat_id": 1,
          "subcat": "Sosial dan Kependudukan",
          "ntabel": null
        },
        {
          "sub_id": 12,
          "title": "Kependudukan",
          "subcat_id": 1,
          "subcat": "Sosial dan Kependudukan",
          "ntabel": null
        },
        {
          "sub_id": 30,
          "title": "Kesehatan",
          "subcat_id": 1,
          "subcat": "Sosial dan Kependudukan",
          "ntabel": null
        },
        {
          "sub_id": 5,
          "title": "Konsumsi dan Pengeluaran",
          "subcat_id": 1,
          "subcat": "Sosial dan Kependudukan",
          "ntabel": null
        },
        {
          "sub_id": 155,
          "title": "Lingkungan Hidup",
          "subcat_id": 1,
          "subcat": "Sosial dan Kependudukan",
          "ntabel": null
        },
        {
          "sub_id": 101,
          "title": "Pemerintahan",
          "subcat_id": 1,
          "subcat": "Sosial dan Kependudukan",
          "ntabel": null
        }
      ]
    ]
  }