{
    "status": "OK",
    "data-availability": "available",
    "data": [
        {
            "page": 1,
            "pages": 31,
            "per_page": 10,
            "count": 10,
            "total": 309
        },
        [
            {
                "var_id": 2,
                "title": "Indeks Harga Konsumen (2022=100)",
                "sub_id": 3,
                "sub_name": "Inflasi",
                "def": "",
                "notes": "",
                "vertical": 110,
                "unit": "Tidak Ada Satuan",
                "graph_id": 3,
                "graph_name": "line"
            },
            {
                "var_id": 431,
                "title": "Inflasi Bulan ke Bulan (m-to-m) (2018=100)",
                "sub_id": 3,
                "sub_name": "Inflasi",
                "def": "",
                "notes": "\t\t\t\t\t\t\t\t\t\t\n\n",
                "vertical": 3,
                "unit": "%",
                "graph_id": 3,
                "graph_name": "line"
            },
            {
                "var_id": 432,
                "title": "Inflasi Tahun Kalender (y-to-d) (2018=100)",
                "sub_id": 3,
                "sub_name": "Inflasi",
                "def": "",
                "notes": "",
                "vertical": 3,
                "unit": "%",
                "graph_id": 3,
                "graph_name": "line"
            },
            {
                "var_id": 433,
                "title": "Inflasi Tahun ke Tahun (y-on-y) (2018=100)",
                "sub_id": 3,
                "sub_name": "Inflasi",
                "def": "",
                "notes": "",
                "vertical": 3,
                "unit": "%",
                "graph_id": 3,
                "graph_name": "line"
            },
            {
                "var_id": 562,
                "title": "Indeks Harga Konsumen (2018=100)",
                "sub_id": 3,
                "sub_name": "Inflasi",
                "def": "",
                "notes": "",
                "vertical": 3,
                "unit": "Tidak Ada Satuan",
                "graph_id": 1,
                "graph_name": "bar"
            },
            {
                "var_id": 563,
                "title": "Inflasi Bulan ke Bulan (m-to-m) (2022=100)",
                "sub_id": 3,
                "sub_name": "Inflasi",
                "def": "",
                "notes": "",
                "vertical": 110,
                "unit": "%",
                "graph_id": 1,
                "graph_name": "bar"
            },
            {
                "var_id": 564,
                "title": "Inflasi Tahun ke Tahun (y-on-y) (2022=100)",
                "sub_id": 3,
                "sub_name": "Inflasi",
                "def": "",
                "notes": "",
                "vertical": 110,
                "unit": "%",
                "graph_id": 1,
                "graph_name": "bar"
            },
            {
                "var_id": 565,
                "title": "Inflasi Tahun Kalender (y-to-d) (2022=100)",
                "sub_id": 3,
                "sub_name": "Inflasi",
                "def": "",
                "notes": "",
                "vertical": 110,
                "unit": "%",
                "graph_id": 1,
                "graph_name": "bar"
            },
            {
                "var_id": 233,
                "title": "Rata-rata Pengeluaran Perkapita Sebulan menurut Kelompok Barang",
                "sub_id": 5,
                "sub_name": "Konsumsi dan Pengeluaran",
                "def": "",
                "notes": "",
                "vertical": 116,
                "unit": "Rupiah",
                "graph_id": 1,
                "graph_name": "bar"
            },
            {
                "var_id": 236,
                "title": "Rata-rata Pengeluaran Perkapita Sebulan menurut Kelompok Barang Perkapita dan Kabupaten/Kota",
                "sub_id": 5,
                "sub_name": "Konsumsi dan Pengeluaran",
                "def": "",
                "notes": "",
                "vertical": 116,
                "unit": "Rupiah",
                "graph_id": 1,
                "graph_name": "bar"
            }
        ]
    ]
}